123Hello World
456
argc = 7 argv[0]=0xFFFE0300 sp=0x3BFFD4
Hello X World @
Hello Universe 64 200.1 300.2 400
Starting on core ->0<-
Argv entry: 0 './precompiled-hello-arm-zynq'
Argv entry: 1 'red'
Argv entry: 2 'yellow'
Argv entry: 3 'green'
Argv entry: 4 'blue'
Argv entry: 5 'well'
Argv entry: 6 'done'
456
argc = 7 argv[0]=0xFFFE0300 sp=0x3BFFD4
Hello X World @
Hello Universe 64 200.1 300.2 400
Starting on core ->0<-
Argv entry: 0 './precompiled-hello-arm-zynq'
Argv entry: 1 'red'
Argv entry: 2 'yellow'
Argv entry: 3 'green'
Argv entry: 4 'blue'
Argv entry: 5 'well'
Argv entry: 6 'done'
Finished hello test
